{
  "businesses": [
    {
      "id": "yelp-tropisueno",
      "name" : "Tropisueno",
      "display_phone": "+1-415-908-3801",
      "image_url": "http://s3-media2.ak.yelpcdn.com/bphoto/7DIHu8a0AHhw-BffrDIxPA/ms.jpg",
      "description": ""
    },
    {
      "id": "yelp-tropisueno2",
      "name" : "Tropisueno2",
      "display_phone": "+1-415-908-3802",
      "image_url": "http://s3-media2.ak.yelpcdn.com/bphoto/7DIHu8a0AHhw-BffrDIxPA/ms.jpg",
      "description": "ssdd"
    }
  ]
}